Project 2: Data Mining, Classification, Prediction
…
NGasvSP %>% group_by(GasPriceDetector) %>% select(-Dividend, 
    -PE10, -`Real Earnings`, -`Real Dividend`, -`Real Price`, 
    -"Consumer Price Index", -Earnings) %>% arrange(desc(Price))

## # A tibble: 256 x 5
## # Groups:   GasPriceDetector [3]
##    Date    Price SP500 `Long Interest Rate` GasPriceDetector
##    <chr>   <dbl> <dbl>                <dbl> <chr>           
##  1 2005-10 13.4  1192.                 4.46 Expensive       
##  2 2005-12 13.0  1262.                 4.47 Expensive       
##  3 2008-06 12.7  1341.                 4.1  Expensive       
##  4 2005-09 11.8  1226.                 4.2  Expensive       
##  5 2008-05 11.3  1403.                 3.88 Expensive       
##  6 2008-07 11.1  1257.                 4.01 Expensive       
##  7 2005-11 10.3  1237.                 4.54 Expensive       
##  8 2008-04 10.2  1370.                 3.68 Expensive       
##  9 2005-08  9.53 1224.                 4.26 Fair            
## 10 2008-03  9.41 1317.                 3.51 Fair            
## #  with 246 more rows
…
NGasvSP %>% filter(GasPriceDetector == "Fair") %>% summarize(Date, 
    SP500)

## # A tibble: 72 x 2
##    Date    SP500
##    <chr>   <dbl>
##  1 2000-09 1468.
##  2 2000-10 1390.
##  3 2000-11 1378.
##  4 2000-12 1331.
##  5 2001-01 1336.
##  6 2001-02 1306.
##  7 2001-03 1186.
##  8 2001-04 1190.
##  9 2003-01  896.
## 10 2003-02  837.
## #  with 62 more rows

NGasvSP %>% filter(GasPriceDetector == "Cheap") %>% summarize(Date, 
    SP500)

## # A tibble: 176 x 2
##    Date    SP500
##    <chr>   <dbl>
##  1 1997-01  766.
##  2 1997-02  798.
##  3 1997-03  792.
##  4 1997-04  764.
##  5 1997-05  833.
##  6 1997-06  876.
##  7 1997-07  925.
##  8 1997-08  927.
##  9 1997-09  937.
## 10 1997-10  951.
## #  with 166 more rows

NGasvSP <- NGasvSP %>% mutate(interest = ifelse(`Long Interest Rate` > 
    4, "High", ifelse(`Long Interest Rate` <= 4 & 2 <= `Long Interest Rate`, 
    "Medium", "Low")))
NGasvSP %>% filter(interest == "High") %>% summarize(Date, SP500, 
    `Long Interest Rate`) %>% arrange(desc(`Long Interest Rate`))

## # A tibble: 124 x 3
##    Date    SP500 `Long Interest Rate`
##    <chr>   <dbl>                <dbl>
##  1 1997-04  764.                 6.89
##  2 1997-05  833.                 6.71
##  3 1997-03  792.                 6.69
##  4 2000-01 1426.                 6.66
##  5 1997-01  766.                 6.58
##  6 2000-02 1389.                 6.52
##  7 1997-06  876.                 6.49
##  8 2000-05 1418.                 6.44
##  9 1997-02  798.                 6.42
## 10 1997-08  927.                 6.3 
## #  with 114 more rows

NGasvSP %>% filter(interest == "Medium") %>% summarize(Date, 
    SP500, `Long Interest Rate`)

## # A tibble: 103 x 3
##    Date    SP500 `Long Interest Rate`
##    <chr>   <dbl>                <dbl>
##  1 2002-09  868.                 3.87
##  2 2002-10  855.                 3.94
##  3 2003-02  837.                 3.9 
##  4 2003-03  847.                 3.81
##  5 2003-04  890.                 3.96
##  6 2003-05  936.                 3.57
##  7 2003-06  988                  3.33
##  8 2003-07  993.                 3.98
##  9 2004-03 1124.                 3.83
## 10 2005-06 1202.                 4   
## #  with 93 more rows

NGasvSP %>% filter(interest == "Low") %>% summarize(Date, SP500, 
    `Long Interest Rate`)

## # A tibble: 29 x 3
##    Date    SP500 `Long Interest Rate`
##    <chr>   <dbl>                <dbl>
##  1 2011-09 1174.                 1.98
##  2 2011-12 1243.                 1.98
##  3 2012-01 1301.                 1.97
##  4 2012-02 1352.                 1.97
##  5 2012-05 1341.                 1.8 
##  6 2012-06 1323.                 1.62
##  7 2012-07 1360.                 1.53
##  8 2012-08 1403.                 1.68
##  9 2012-09 1443.                 1.72
## 10 2012-10 1438.                 1.75
## #  with 19 more rows
…
